version="0.1"
tags={
	"Culture"
	"Utilities"
}
name="ComPatch_CE-AutoPromoteCulture"
supported_version="1.6.1.2"
path="C:/Users/Etshy/Documents/Paradox Interactive/Crusader Kings III/mod/ComPatch_CE-AutoPromoteCulture"